{
  "properties": [
    {
      "name": "todo.ws.endpoint",
      "type": "java.lang.String",
      "description": "As name idicates, e.g. /stomp"
    },
    {
      "name": "todo.ws.broker",
      "type": "java.lang.String",
      "description": "As name idicates, e.g. /anycast or /unicast"
    },
    {
      "name": "todo.ws.app",
      "type": "java.lang.String",
      "description": "As name idicates, e.g. /todo-api-ws"
    }
  ]
}
